[
  {
    "id": 0,
    "name": "Advanced Persistent Threat",
    "description": "Bir saldırganın ya da saldırı grubunun çeşitli gelişmiş teknikleri kullanarak hedeflenen ağa yetkisiz erişim sağladığı ve uzun bir süre boyunca tespit edilmediği siber saldırı türüdür. Genellikle, ülkenin ekonomik ve siyasi istikrarına zarar vermek isteyen devlet tabanlı saldırganlar tarafından kullanılır."
  },
  {
    "id": 1,
    "name": "Adware",
    "description": "Bilgisayarınızda kullandığınız uygulamalarda reklamları otomatik olarak gösteren yazılımdır."
  },
  {
    "id": 2,
    "name": "Backdoor",
    "description": "Bir saldırganın, mevcut herhangi bir güvenlik mekanizması etrafında güvenliği ihlal edilmiş sisteme daha kolay erişmesini sağlamak için güvenlik açığından sonra kurulan bir araçtır."
  },
  {
    "id": 3,
    "name": "Bruteforce Attack",
    "description": "Kaba kuvvet ile saldırganın belirli bir ‘’user login’’ üzerinden çok sayıda şifre denemesi yaparak başarılı giriş yapmaya çalışmasıdır."
  },
  {
    "id": 4,
    "name": "Buffer Overflow",
    "description": "İki yazılım arasında veri iletişimi için ayrılmış olan bir arabelleğe boyutundan daha fazla veri konulması ile ortaya çıkan durumdur. Engellenemezse yetkisiz kod çalıştırma ve sistem sorunlarına neden olabilir."
  },
  {
    "id": 5,
    "name": "BUG",
    "description": "Sistemin zayıf noktası anlamına gelir. Sistemlere girmek için kullanılan yazılım ve donanımlar karşıda sürekli bir boşluk arar."
  },
  {
    "id": 6,
    "name": "Clickjacking",
    "description": "Sosyal platformlarda kullanıcılara ilgi çekici bir link yada içerik olarak gösterilen ve zararlı bir yönlendirme mantığıyla çalışan sistemdir."
  },
  {
    "id": 7,
    "name": "Cross-Site Scripting (XSS)",
    "description": "HTML, CSS, Javascript vb. ile hazırlanmış kod parçacıklarının, hedef kullanıcının (kurbanın) web uygulamasında izinsiz olarak çalıştırılmasından kaynaklanan bir güvenlik açığıdır. Hedef kullanıcının oturum bilgilerinin çalınması, kurbanın o an görmekte olduğu uygulamanın içeriğinin değiştirilmesi, oltalama saldırılarının (phishing) gerçekleştirilmesi gibi sonuçlar doğurur."
  },
  {
    "id": 8,
    "name": "Discretionary Access Control",
    "description": "İsteğe bağlı erişim kontrolü, sistemdeki bir nesnenin sahibinin o nesneye ilişkin izinleri diğer kullanıcılara iletebilmesi açısından isteğe bağlı olmasıyla ilgilidir."
  },
  {
    "id": 9,
    "name": "DMARC",
    "description": "Bir domain tarafından gelen mesajların o domaine ait olup olmadığına birden fazla mekanizma ile doğrulama yaparak karar veren ve mesaj teslim sürecini kontrol eden güvenlik protokolüdür."
  },
  {
    "id": 10,
    "name": "DNS Hijacking",
    "description": "Saldırgan bilgisayarın ayarlarını DNS’i görmezden gelecek şekilde değiştirir veya kendisi tarafından kontrol edilen bir DNS sunucusu kullanır. Saldırganlar iletişimi sahte sitelere yönlendirir. Kullanıcılar genellikle giriş bilgilerinin ele geçirilmesi için sahte sitelere yönlendirilir."
  },
  {
    "id": 11,
    "name": "Docker",
    "description": "Open source bir ‘container’ teknolojisidir. Docker, aynı işletim sistemi üzerinde, yüzlerce hatta binlerce birbirinden izole ve bağımsız containerlar sayesinde sanallaştırma sağlayan bir teknolojidir. Web uygulamalarımızın kolayca kurulumunu, testini, çalışmasını ve deploymentını sağlar. Bunun yanında sunucu maliyetlerini önemli ölçüde azaltır."
  },
  {
    "id": 12,
    "name": "Email Bomber",
    "description": "Email adreslerini hedef alan saldırı türüdür. Saldırganlar hedef mail adresinin gelen kutusun doldurmak ve kullanıcının dikkatini dağıtmak için yüzlerce, binlerce mail bombalama saldırı yaptığı türdür."
  },
  {
    "id": 13,
    "name": "Encryption",
    "description": " Bir veri ya da metnin içeriğini daha önceden belirlenen bir şifreleme algoritması ile değiştirerek 3. kişiler tarafından okunması ve anlaşılmasını engellemek için kullanılan bir yöntemdir. Veriyi 'cleartext' formatından 'ciphertext' formatına dönüştürür. "
  },
  {
    "id": 14,
    "name": "Exploit",
    "description": "Yazılımsal veya donanımsal olarak bir sistemin zayıf yanlarının keşfedilmesi sonucu bu açıkları hedef alarak sistem içerisinde kontrol sahibi olabilen ve sonucunda geri dönüşü olmayan zararlara ve bilgi sızıntılarına sebep olabilecek bir tür komut dizini, kod veya uygulamadır."
  },
  {
    "id": 15,
    "name": "Firewall",
    "description": "Bir ağda bulunan bileşenlerin internete çıkmadan önceki çıkış ucunda ağın güvenli ve emniyetsiz tarafı arasındaki ağa gelen ve ağdan çıkan tüm trafiği önceden tanımlanmış iletim kurallarını baz alarak denetleyen bir ağ güvenlik cihazıdır."
  },
  {
    "id": 16,
    "name": "GDPR-The General Data Protection Regulation",
    "description": "AB vatandaşlarının verilerini ve gizliliğini korumak için 2016 yılında yayınlanan AB yasasıdır. Önceki yasaların çoğunun ötesine geçer ve ihlaller ciddi para cezalarına neden olabilir."
  },
  {
    "id": 17,
    "name": "Hoax",
    "description": "Kitleleri etkilemek veya markaları karalamak için oluşturulan yalan habere dayanan dijital içerik. İnanılırlığı artırmak için imza kısmına çoğunlukla resmî kurum adları, profesör veya mühendis unvanları eklenir."
  },
  {
    "id": 18,
    "name": "Honeypot",
    "description": "Bir bilgisayarın bağlantı noktalarına benzeyen bir veya daha fazla ağ hizmetini simüle edebilen ve güvenlik amacıyla kullanılan bir programdır. Saldırganların gerçek üretim sistemlerine saldırmalarını önlemek için tuzak amaçlı kullanılır."
  },
  {
    "id": 19,
    "name": "Indicator of Compromise",
    "description": "Uzlaşma göstergesi. Bir güvenlik ihlaline işaret eden herhangi bir sinyal, imza veya başka bir kanıt."
  },
  {
    "id": 20,
    "name": "Intrusion Prevention System",
    "description": "Bir hedefin güvenliğini tehlikeye atma girişimini tespit etmeye çalışan ve ardından bu saldırının başarılı olmasını engelleyen bir güvenlik aracıdır. Potansiyel tehditlere proaktif olarak yanıt vermeye çalıştığı için daha aktif bir güvenlik aracı olarak kabul edilir. IP adreslerini engelleyebilir, hizmetleri kapatabilir, bağlantı noktalarını engelleyebilir ve oturumların bağlantısını kesebilir ve ayrıca yöneticileri bilgilendirebilir."
  },
  {
    "id": 21,
    "name": "Ip Spoofing",
    "description": "Bir kimlik gizleme yöntemidir. Bu yöntem ya bir bağlantıda IP adresini hedef sisteme farklı göstermek için ya da IP adres tabanlı kimlik doğrulamayı atlatmak için kullanılır. Man in the Middle (Ortadaki Adam) saldırısı bir örneğidir."
  },
  {
    "id": 22,
    "name": "Keylogger-Anahtar Kaydedici",
    "description": "Sisteme yüklenmesiyle aktif hale gelen tuş takip programlarıdır, klavyede basılan her tuşu bir dosyaya kaydeder. Genellikle kullanıcı adları, şifreler ve kredi kartı bilgileri gibi kritik verileri çalmak için kullanılır."
  },
  {
    "id": 23,
    "name": "Loader",
    "description": "Zararlı yazılımlar ile sistemin bağlı giriş ve çıkış cihazları takip edilerek sisteme izinsiz erişen kişilere özel bilgiler sızdırılır."
  },
  {
    "id": 24,
    "name": "MISP",
    "description": "Tehdit paylaşımı açık kaynaklı olan platform, uzlaşma göstergelerini paylaşarak etkili tehdit istihbaratı için yardımcı programlar ve belgeler geliştirmektedir."
  },
  {
    "id": 25,
    "name": "MITM (Man in the Middle)",
    "description": "Ağda, iki bağlantı arasındaki iletişimin dinlenmesi ile çeşitli verilerin ele geçirilmesi veya iletişimi dinlemekle kalmayıp her türlü değişikliğin yapılmasını da kapsayan bir saldırı yöntemi."
  },
  {
    "id": 26,
    "name": "Microsegmentation",
    "description": "Ağ güvenliğini ve görünülürlüğü artırmak amacıyla ağı alanlara ayıran, ağ üzerindeki kontrolü ve alanlar arasındaki iletişimi ''asla güvenme modeli'' ile etkili ve detaylı bir şekilde takip eden olası sızmalarda yatay hareketi engellemeyi hedefleyen yöntemdir."
  },
  {
    "id": 27,
    "name": "Mitre Attack",
    "description": "Saldırıları daha iyi sınıflandırmak ve bir organizasyonun riskini değerlendirmek için kullanılan kapsamlı bir taktik ve teknikler matrisidir. Amacı, bir saldırganın yapmış olabileceği eylemleri göstererek, gelecek bir saldırıya karşı önleyici tedbirler alınmasını sağlamaktır."
  },
  {
    "id": 28,
    "name": "Open Web Application Security Project",
    "description": "Web uygulama güvenliği alanında ücretsiz olarak kullanılabilen makaleler, metodolojiler, belgeler, araçlar ve teknolojiler üreten bir topluluktur. Amaçları, bir web sitesine sahip olan herkesin savunma amaçlı programlama, tasarım ve yapılandırma yoluyla sitelerinin güvenliğini artırmasına yardımcı olmaktır."
  },
  {
    "id": 29,
    "name": "OSINT-Open Source Intelligence",
    "description": "Bir istihbarat bağlamında kullanılmak üzere halka açık kaynaklardan toplanan verilerdir."
  },
  {
    "id": 30,
    "name": "Packet",
    "description": "Temelinde dijital verilerin veya komutların bulunduğu ve bunların daha küçük birimlere ayrıldığı zaman meydana gelen verinin birimidir."
  },
  {
    "id": 31,
    "name": "Payload",
    "description": "Saldırganların hedef sistemlere erişim sağladıktan sonra zararlı aktivitelerin gerçekleştirilmesini sağlayan kötü niyetli kod parçacığıdır."
  },
  {
    "id": 32,
    "name": "PuTTY",
    "description": "Küçük boyutlu, çeşitli işletim sistemlerinde çalışabilen sürümleri bulunan açık kaynak kodlu ücretsiz bir SSH/Telnet programıdır."
  },
  {
    "id": 33,
    "name": "Ransomware (Fidye Yazılım)",
    "description": "Sunucular da dahil olmak üzere ağdaki tüm dosyaları ve belgeleri tek bir bilgisayardan şifreleyebilen kötü amaçlı yazılımlara verilen genel ad. Bilgisayarınıza bulaştıktan sonra, siber suçlular tarafından genellikle kripto para birimi cinsinden bir fidye ödemeniz istenir."
  },
  {
    "id": 34,
    "name": "Regex (Regular Expressions)",
    "description": "Bir metni düzenlemek ya da metin içerisinde belirli kurallara uyan alt metinler elde etmek için kullanılan bir dildir. Ayıca metinlerde aranan bir tümceyi kolayca bulmamamızı sağlayan bir çeşit algoritmadır."
  },
  {
    "id": 35,
    "name": "Replay Attack",
    "description": "Saldırganlar, servis ile tüketici arasına girerek, gönderilen paketleri yakalar ve sahibine geri yollar. Bunu sıklıkla tekrar ederler. Bu durumda paketin göndericisi paketi gönderemediğini düşünür ve yeniden göndermeye çalışır. Dolayısıyla paketin göndericisi sürekli meşgul durumda kalarak hizmet veremez hale gelir."
  },
  {
    "id": 36,
    "name": "Sandbox",
    "description": "Korumalı alan, kullanıcıların çalıştıkları uygulamayı, sistemi veya platformu etkilemeden programları çalıştırmasını veya dosyaları yürütmesini sağlayan yalıtılmış bir test ortamıdır."
  },
  {
    "id": 37,
    "name": "Sandboxing",
    "description": "Test veya değerlendirme yapmak için uygulamaları, kodu veya tüm işletim sistemlerini izole etmenin bir yoludur. Ana sisteme, ilgili veriye veya depolama cihazlarına gelebilecek herhangi bir zararı önlerken izole edilmiş öğenin değerlendirmesi için kullanılmasına izin verir."
  },
  {
    "id": 38,
    "name": "Social Engineering",
    "description": "İnsan hatasını ve psikolojik zayıflıkları hedef alır. Duygulardan faydalanmalarının yanında korsanlar kullanıcıların bilgi eksikliğinden fazlasıyla yararlanırlar. Bir tür saldırı ve manipülasyon tekniğidir."
  },
  {
    "id": 39,
    "name": "Split-tunnel",
    "description": "Özellikle uzaktan çalışma ile daha da önem kazanan kurum içi kaynaklara erişim ihtiyacını vpn tunel üzerinden karşılarken harici internet bağlantısı ihtiyaçlarını da tuneli kullanmadan sağlayabilen metottur."
  },
  {
    "id": 40,
    "name": "Spyware(casus yazılım)",
    "description": "Malware türlerinden biridir. Kullanıcıların bilgisi ve rızası olmadan internette gezinme davranışlarını takip etmeyi ve e-posta adreslerini toplayarak kötü amaçlı kişilere ulaştırmayı amaçlayan kötü niyetli bir yazılımdır."
  },
  {
    "id": 41,
    "name": "SQL Injection",
    "description": "Bir web site hackleme tekniğidir. Saldırgan, bu teknikle yazılımların içindeki bir güvenlik açığından faydalanıp veri tabanına erişir ve saldırı verilerin silinmesi, veri eklemesi, verilerin çalınması veya değiştirmesi ile sonuçlanır."
  },
  {
    "id": 42,
    "name": "Traceroute",
    "description": "TCP/IP ağlarında kaynak bilgisayardan hedef bilgisayara giden paketlerin hangi rotayı takip ettiğinin anlaşılması ve bu rotalardan geçerken meydana gelen gecikmelerin görülebilmesini sağlayan bir komuttur. Hedefe ulaşırken TTL değeri her hop noktasında bir artırılarak hedefe ulaşıncaya kadar gider."
  },
  {
    "id": 43,
    "name": "Traffic Light Protocol (TLP)",
    "description": "Hassas bilgilerin doğru hedef kitleyle paylaşılmasını sağlamak için kullanılan dört rengin (RED, AMBER, GREEN, WHITE) kullanıldığı bir dizi tanımlamadır."
  },
  {
    "id": 44,
    "name": "IP Hırsızlığı (IP Spoofing)",
    "description": "Bir sisteme veya ağa izinsiz erişim sağlamak için sahte IP adresi kullanılmasıdır."
  },
  {
    "id": 45,
    "name": "Wireshark",
    "description": "Açık kaynaklı bir paket çözümleyicisidir. Ağ sorunlarını giderme, çözümleme, yazılım ve iletişim protokolü geliştirme ve eğitim amaçlı olarak kullanılır."
  },
  {
    "id": 46,
    "name": "Worm (Solucan Virüs)",
    "description": "Genellikle e-posta, kaynağı belirsiz programlar, forum siteleri, korsan oyun DVD ve CD'leri gibi çeşitli yollarla bilgisayarlara bulaşan zararlı yazılımdır. Otomatik olarak kendisini yine cihazlara kopyalaması için tasarlanmıştır."
  },
  {
    "id": 47,
    "name": "Xml External Entities",
    "description": "Saldırgan, XML işlemcinin güvenle değerlendirdiği kötü amaçlı bağlantılar içeren bir XML belgesi göndererek uzaktan kod yürütülmesine ve bilginin açığa çıkmasına neden olur."
  },
  {
    "id": 48,
    "name": "Zero Trust",
    "description": "Bilgi hırsızlığını, yetkisiz kişilerin veya yazılımların uygulamalarımıza veya ağımıza erişmesini önlemeye yönelik ortaya çıkan “asla güvenme, daima doğrula” modelidir."
  },
  {
    "id": 49,
    "name": "Adli Bilişim (Computer Forensics)",
    "description": "Bilişim cihazları üzerinde araştırma, inceleme,tespit vs. işlemler yapan hukuk alı, alanı ve faaliyetidir. Bu tür işlemler ile gerek kolluk kuvvetlerinin gerekse yargı makamlarının bilişim alanındaki delil ihtiyacı sağlanmaktadır."
  },
  {
    "id": 50,
    "name": "Adli İnceleme (Digital Forensics)",
    "description": "Bir cihazın, çeşitli teknikler kullanılarak ve gerektiğinde yardımcı cihazlar ile araç-gereçlerden yararlanılarak adli amaçlarla incelenmesi işidir. Bu işlemin amacı bir siber güvenlik olayının meydana geldiğini veya kimler tarafından gerçekleştirildiğini belirleyebilmektir."
  },
  {
    "id": 51,
    "name": "Ağ (Network)",
    "description": "İki veya daha fazla bilgisayarın, kablolu ya da kablosuz iletişim araçları ve yazılım-donanım bileşenleri arasında bağlantı kurulmasıyla oluşturduğu sisteme verilen isimdir."
  },
  {
    "id": 52,
    "name": "Anti-malware",
    "description": "Bilgisayar virüsleri, solucanlar, trojanlar, zararlı tarayıcı eklentileri, adware ve Spyware dahil olmak üzere birçok malware tehdidini tespit etmek veya ortadan kaldırmak için yaygın olarak kullanılan teknolojidir."
  },
  {
    "id": 53,
    "name": "Ağ dinleme (Sniffing)",
    "description": "Ağ dinleme araçları kullanarak ağdan geçen tüm veri paketlerini yakalayıp izlenmesi sürecidir. Sniffing işleminin yapılabilmesi için uzman seviyesinde bilgisayar, güvenlik ve ağ bilgisine ihtiyaç bulunmaktadır."
  },
  {
    "id": 54,
    "name": "Alan Adı Sistemi (Domain Name System / DNS)",
    "description": "Bilgisayarlar arasında iletişimi sağlamak amacıyla oluşturulmuş protokollerdir. Bu kapsamda bir kullanıcının kendi bilgisayarı ile başka bilgisayarlarla iletişime geçebilmesi için, iletişim kurulmak istenen bilgisayarın internet protokol adreslerini bilmesi gerekecektir. İletişime geçilecek tüm bilgisayarların IP numaralarını akılda tutmak zor olduğu için alan adı sistemi olarak adlandırılan DNS protokolü geliştirilmiştir."
  },
  {
    "id": 55,
    "name": "Anonim Proxy (Anonim Vekil)",
    "description": "Kullanıcının internet üzerinden gerçekleştirdiği hareketliliği gizlemesini sağlayan yazılımdır."
  },
  {
    "id": 56,
    "name": "IP Güvenliği (IP Security)",
    "description": "Bir veri akışındaki her IP paketinin şifrelenmesi ve tanımlanması yoluyla, tüm iletişimin güvenliğini sağlamak için oluşturulmuş protokoller takımıdır."
  },
  {
    "id": 57,
    "name": "Barındırma Alanı (Web Server Hosting)",
    "description": "Barındırma Alanı, web sitesi sahibi olmak isteyen internet kullanıcılarına internetten alan sahibi olma imkanı sağlayan sistematiktir. Her web sitesinin boyutuna göre kapladığı bir alan vardır ve internette barınabilmek için bu alanı hosting hizmeti ile karşılamaları gerekir. Bu hizmet, şirketlerin sunucuları sayesinde gerçekleşir. Kullanıcılar, sunucuların tamamını veya bir kısmını ihtiyaçlarına göre kiralayabilir. Devreye aracı şirketler veya ortak sunucu paylaşımı gibi etkenler girince güvenlik sorunları da kaçınılmaz olur. Bununla birlikte, bir barındırma alanı seçilirken özellikle sunucuların güvenliğine dikkat edilmelidir."
  },
  {
    "id": 58,
    "name": "Bilgi Güvenliği (Information Security)",
    "description": "Bilgilerin korunması amacıyla oluşturulan faaliyetlerin bütünüdür. Bu kapsamdaki faaliyetler ile bilgilerin manipüle edilmesi, ifşa edilmesi, ele geçirilmesi ve/veya zarar görmesi engellenir."
  },
  {
    "id": 59,
    "name": "Bilgi Güvenliği Yönetim Sistemi (Information Security)",
    "description": "Bilgilerin korunması amacıyla oluşturulan faaliyetler bütünüdür. Bu faaliyetlerin sistemli, planlı, yönetilebilir, sürdürülebilir, dokümante edilmiş, kurumun/kuruluşun yönetimince kabul görmüş ve uluslararası güvenlik standartlarının temel alındığı bir usul ve tarzda planlanması gerekir."
  },
  {
    "id": 60,
    "name": "Bilgi Teknolojileri ve İletişim Kurumu / BTK",
    "description": "Türkiye’de sekteröl bakımdan, telekomünikasyon sektörünü düzenleyip denetleyen ilk kurumdur."
  },
  {
    "id": 61,
    "name": "Bilgisayar Korsanı (Hacker)",
    "description": "Yazılım konusunda teknik becerileri olan kişileri tanımlamak için kullanılabilir. Ancak genellikle suç işlemek amacıyla sistemlere veya ağlara yetkisiz erişim sağlamak için yeteneklerini kullanan bir kişi anlamına gelir. "
  },
  {
    "id": 62,
    "name": "Siyah Şapkalı Hacker",
    "description": "Kişi veya kurumlara ait bilgisayarların, telefonların veya ağların güvenlik sistemlerine izinsiz olarak sızan ve bunu kendi menfaatleri doğrultusunda kullanan kişilerdir."
  },
  {
    "id": 63,
    "name": "Beyaz Şapkalı Hacker",
    "description": "İyi niyetli olarak faaliyet gösteren bilgisayar korsanlarıdır. Etik Bilgisayar Korsanlarıdır."
  },
  {
    "id": 64,
    "name": "Gri Şapkalı Hacker",
    "description": "Sahibinin izni veya bilgisi olmadan, bir sistemdeki güvenlik açıklarını arayan hackerlardır. Sorunları bulmaları halinde, bunları sahibine bildirir ve bazen sorunu çözmek için ücret talep edebilirler."
  },
  {
    "id": 65,
    "name": "Bilişim Sistemleri (Information System)",
    "description": "Ağ teknolojileri vasıtasıyla sağlanan tüm hizmet ve faaliyetlerin sunumunda kullanılan sistemleri tanımlayan kavramdır."
  },
  {
    "id": 66,
    "name": "Bulut (Cloud)",
    "description": "Bilgilere erişimi sağlayan ve bunları depolayabilen internet tabanlı veri depolama sistemidir."
  },
  {
    "id": 67,
    "name": "Bütünlük (Integrity)",
    "description": "Bilgisayar sistemlerinde bilgilerin kasıtlı olarak, yetkisiz bir erişim sağlanmasıyla veya bir kaza/hata sonucu değişikliğe uğraması söz konusu olabilmektedir. Bu tür handikapların ve sorunların ortaya çıkmasını engellemek amacıyla da çeşitli koruma sistemleri kullanılabilir. Bu koruma sistemleri ise Bütünlük olarak tanımlanmaktadır."
  },
  {
    "id": 68,
    "name": "Büyük Zombi PC Ağı (Botnet)",
    "description": "Hackerlar tarafından ele geçirilmiş internete bağlı bir bilgisayar ağına zombi bilgisayar denir. Genellikle zombi bilgisayarlar, bir botnet’e bağlıdır ve internet üzerinde zararlı eylemleri gerçekleştirmek üzere kullanılırlar. Botnet aynı komutları gerçekleştiren zombi bilgisayarların oluşturduğu bir ağ şeklinde tanımlanabilir."
  },
  {
    "id": 69,
    "name": "Two-Factor Authentication (İki Faktörlü Doğrulama)",
    "description": "Doğrulama için iki bağımsız mekanizmanın kullanılmasıdır."
  },
  {
    "id": 70,
    "name": "Cyber Grooming",
    "description": "Sanal ortamda çocuklar ile iletişime geçerek onları istismar etmek veya onlardan cinsel anlamda fayda sağlamak amacıyla çocuklarla yaklaşmak, çocuklara karşı kendilerini olmadıkları gibi göstermek, çocuklarla arkadaşlıklar kurmayı ifade etmektedir."
  },
  {
    "id": 71,
    "name": "Cookie (Çerez)",
    "description": "Çerezler, ziyaret edilen internet siteleri tarafından tarayıcılar aracılığıyla cihazlara veya ağ sunucularına depolanan küçük metin dosyalarıdır. İnternet sitelerinde çerez kullanılmasının amacı, internet sitesinin işlevselliğini ve performansını arttırarak, sunulan hizmetleri geliştirmek, internet üzerinden yeni özellikler sunmak ve sunulan özellikleri kullanıcıların tercihlerine göre kişiselleştirmektir. Çerez kesinlikle bir virüs değildir."
  },
  {
    "id": 72,
    "name": "Online Enticement (Çevrim İçi Kandırma)",
    "description": "Bir kişinin çocuk olduğuna inandığı kişi ile internet aracılığıyla iletişim kurup, çocuğu kaçırma veya ona karşı cinsel istismar suçu işlemesidir."
  },
  {
    "id": 73,
    "name": "Child Protection System (Çocuk Koruma Sistemi)",
    "description": "P2P yöntemi ile çocuk istismarı görüntülerinin paylaşılması durumunda paylaşımda bulunan istismarcıları tespit etmeye yönelik çalışmalar yapılmasını sağlayan CRC tarafından üretilen bir programdır."
  },
  {
    "id": 74,
    "name": "Multi - Factor Authentication(Çok Faktörlü Kimlik Doğrulaması)",
    "description": "Bir kimlik belgesini kanıtlamak için birden çok kimlik doğrulama faktörü kullanılmasıdır. Bir kimlik doğrulama girişiminde sunulan bileşenlerin en az biri eksik veya yanlış ise kullanıcının kimliği yeterli derecede kesin değilse veya varlığa erişim sağlanmazsa erişim engellenebilmektedir. Güvenlik sistemlerine entegre edilerek mevcut güvenlik sistemlerinin bir adım daha güvenli kılınmasına imkân sağlamaktadır."
  },
  {
    "id": 75,
    "name": "Dağınık Hizmet Engelleme",
    "description": "Distributed Denial of Service (DDoS) olarak bilinen bu siber saldırı yönteminde, ilk aşamada kötü amaçlı yazılımlara çok sayıda bilgisayar aynı anda ele geçirilmekte ve bu bilgisayarlar “zombi” bilgisayar haline getirilmektedir. Bu aşamada çoğu zaman kullanıcılar, bilgisayarlarının ele geçirildiğinin farkında olmamaktadırlar. İkinci aşama da ise ele geçirilen bu bilgisayarlardan “Botnet” adı verilen bir ağ oluşturarak, önceden planlı bir şekilde hedeflenen web sayfalarına sistematik olarak saldırmak suretiyle, hedef alınan ağ sistemlerini kullanılmaz hale getirmektedir."
  },
  {
    "id": 76,
    "name": "Internet Exchange Point (İnternet Değişim Noktası)",
    "description": "İki bağımsız otonom sistemin birbirine bağlanması suretiyle internet trafiğinin değişimine imkan veren altyapıdır."
  },
  {
    "id": 77,
    "name": "Eradikasyon (Eradication)",
    "description": "Bir siber olayın ortadan kaldırılma sürecidir. Bu süreç, siber olayın tespiti, kontrolü ve tüm sonuçları ile bertaraf edilmesi şeklindedir."
  },
  {
    "id": 78,
    "name": "Erişilebilirlik (Accessibility)",
    "description": "Bilgilere, yetkili kişilerin ihtiyaç halinde ulaşabilmesinin temin edilmesidir."
  },
  {
    "id": 79,
    "name": "Erişim Kontrolü (Access Control)",
    "description": "Bir yeri veya kaynakları kimlerin veya nelerin görüntüleyeceğini, kullanabileceğini veya erişebileceğini düzenleyen bir güvenlik tekniğidir Riski en aza indirmek için tasarlanmış bir bilgi güvenliği uygulamasıdır."
  },
  {
    "id": 80,
    "name": "Gelişmiş Şifreleme Standardı (Advanced Encryption Standard)",
    "description": "128 ila 256 bit anahtar boyutlarını kullanan simetrik bir şifreleme algoritmasıdır."
  },
  {
    "id": 81,
    "name": "Gizlilik (Privacy)",
    "description": "Bilişim sistem ve verilerine, sadece yetkili kişi veya sistemlerce erişilebilmesi şeklinde tanımlanabilir. Bir başka tanımda ise bilinmesi gerekenler bazındaki bilgilerin, sadece yetkili kişilerin süreçlerin veya sistemlerin erişimine açık olmasını öngören en düşük erişim hakkı prensibi olarak da ifade edilmektedir."
  },
  {
    "id": 82,
    "name": "Güç Dağılımı (Diffusion of Power)",
    "description": "Joseph Nye tarafından ortaya atılan bir kavramdır. Söz konusu kavram ile süreç içinde siber uzaya devletlerin tek başlarına hakım olamayacakları, siber uzaydaki gelişmeler kapsamında gücün büyük devletlerden görece daha küçük devletlere ve devlet dışı aktörlere (hacker grupları, bireyler, örgütler vb.) kayacağı ileri sürülmektedir."
  },
  {
    "id": 83,
    "name": "Güvenli Kabuk (Secure Shell)",
    "description": "Ağ hizmetlerinin güvenli olmayan bir ağ üzerinde, güvenli şekilde çalıştırılması için kullanılan bir kriptografik ağ protokolüdür."
  },
  {
    "id": 84,
    "name": "Güvenli Soket Katmanı (Secure Sockets Layer)",
    "description": "Bilgisayar ağı üzerinden güvenli haberleşmeyi sağlamak için tasarlanmış kripto protokolleridir"
  },
  {
    "id": 85,
    "name": "Güvenlik Açığı (Security Bug)",
    "description": "Sistem üzerindeki yazılım ve donanım hatalarından kaynaklanan zafiyet noktalarıdır."
  },
  {
    "id": 86,
    "name": "Kimlik Doğrulama (Authentication)",
    "description": "İnternet temelli bir sistemin kullanıcılarının kimliğini ve bilgilere erişim yetkisinin doğrulanmasıdır"
  },
  {
    "id": 87,
    "name": "Kriptanaliz (Cryptanalysis)",
    "description": "Kriptanaliz işlemi kriptografi kullanılarak şifre edilmiş bir verinin şifresini çözme, yani veriyi analiz etme işlemidir."
  },
  {
    "id": 88,
    "name": "Kişisel Bilgilerin Korunması (Personal Information Protection)",
    "description": "İnternet ve sosyal medya uygulamaları ile ilgili süreçler kapsamında, kişisel bilgilerin korunması amacıyla alınan tedbirlerin tümünü ifade eden bir kavramdır."
  },
  {
    "id": 89,
    "name": "Kriptoloji (Cryptology)",
    "description": "Şifre bilimidir. Belge ya da mesajın şifrelenip istenilen yere iletilmesi ve ardından deşifre edilmesini sağlama faaliyetiyle uğraşan bilim dalıdır"
  },
  {
    "id": 90,
    "name": "Kurtarma (Recovery)",
    "description": "Siber olay sonrasında oluşan hasarı, geri döndürmek amacıyla yapılan müdahale sürecidir."
  },
  {
    "id": 91,
    "name": "Mantıksal Erişim Kontrolleri (Logical Access Controls)",
    "description": "Bir sistem üzerinde kullanıcı erişimleri kullanılmak suretiyle uygulanan kontrol süreçleridir. Bu süreçler, söz konusu erişimlerin uygulanması, izlenmesi, düzenlenmesi, test edilmesi ve sonlandırılması aşamaları üzerinden icra edilir."
  },
  {
    "id": 92,
    "name": "Maskeleme (Masking)",
    "description": "Şifreler gibi hassas bilgilerin görünürlüğünü gizleyen uygulamalardır."
  },
  {
    "id": 93,
    "name": "Metasploit",
    "description": "Güvenlik açıkları hakkında bilgi sağlayan, sızma testleri ve IDS imza gelişmesinde yardımcı olan bir bilgisayar güvenlik projesidir."
  },
  {
    "id": 94,
    "name": "Nesnelerin İnterneti (Internet of Things / IoT)",
    "description": "Benzersiz bir şekilde adreslenebilir nesnelerin kendi aralarında oluşturduğu, dünya çapında yaygın bir ağ ve bu ağdaki nesnelerin belirli bir protokol ile birbirleriyle iletişim içinde olmaları Nesneler, algılayıcılar ve elektronik devreler ile donatıldığında insanlarla iletişime geçerek, durum bilgilerini güncelleyebilecek yetenekler kazanırlar. Mobil ağlar ve internetin gelişimiyle birlikte bu nesnelerin kişiler ile iletişim kurmaları kolaylaşmıştır ve insanlar da onları her yerden, her zaman gözlemleme ve kontrol etme şansına sahip olmuştur."
  },
  {
    "id": 95,
    "name": "Olay Müdahalesi (Incident Response)",
    "description": "Bir işletmede bir siber güvenlik olayı meydana geldiğinde, ortaya çıkan hasarın giderilmesi için önceden hazırlanan iş süreçleridir."
  },
  {
    "id": 96,
    "name": "Oltalama (Phishing)",
    "description": "Teknolojik imkanlardan faydalanılarak oluşturulan özel yöntem ve içeriklerle, insanların kişisel/hassas bilgilerini ele geçirmeyi amaçlayan bir dolandırıcılık türüdür."
  },
  {
    "id": 97,
    "name": "Omuz Sörfü (Shoulder Surfing)",
    "description": "Parola yazılırken ya da erişim kısıtlı sistemlere erişilirken kurbanın izlenmesidir. Omuz sörfüne maruz kalabilecek olası yerler; havaalanları, kafeler, oteller ve kamuya açık alanlar gibi müşterek kullanılan internet ağlarıdır."
  },
  {
    "id": 98,
    "name": "Risk Değerlendirmesi (Risk Assessment)",
    "description": "Siber risklerin ve olası risk kaynaklarının etkilerini değerlendirme sürecidir."
  },
  {
    "id": 99,
    "name": "Risk Transferi (Risk Transfer)",
    "description": "Siber riskin gerçekleşmesi ile birlikte ortaya çıkan somut hasarların bir başka aktöre aktarılmasıdır."
  },
  {
    "id": 100,
    "name": "Riskin Azaltılması (Risk Mitigation)",
    "description": "Siber riskin yönetilmesi amacıyla alınan etkili tedbirlerdir."
  },
  {
    "id": 101,
    "name": "Risk Kabulü (Acceptance Risk)",
    "description": "Bir kurumun tolerans gösterebileceği siber risk seviyesidir."
  },
  {
    "id": 102,
    "name": "Risk Toleransı (Risk Tolerance)",
    "description": "Yönetimin kabul edebileceği siber risk seviyesidir."
  },
  {
    "id": 103,
    "name": "Riski Önleme (Risk Avoidance)",
    "description": "Siber riski engelleyerek, olası hasarlardan kaçınma sürecidir."
  },
  {
    "id": 104,
    "name": "Sahte Antivirüs Yazılımı (Fake Antivirus)",
    "description": "Siber saldırılara karşı güvenlik açısından yararlı gibi görünen, fakat etkisiz güvenlik sağlayan yazılımlardır."

  },
  {
    "id": 105,
    "name": "Saldırı Önleme Sistemi (Intrusion Prevention System)",
    "description": "Bir kurumun siber güvenlik açığı ihlallerini tespit etmek amacıyla internet trafiği süreçlerini izleyen sistemlerdir."
  },
  {
    "id": 106,
    "name": "Sanal Ağ Geçidi (Virtual Gateway)",
    "description": "Kurum içi veya VNet-VNet bağlantısı için eşlenen sanal ağda VPN ağ geçidinin kullanılmasına imkan sağlayan bir eşleme özelliğidir."
  },
  {
    "id": 107,
    "name": "Sanal Özel Ağ (Virtual Private Network / VPN)",
    "description": "İnternette gerçekleştirilen her harekette dijital izler bırakmadan, mahremiyeti koruyarak, kısıtlı olmaksızın tüm internet sitelerine özgürce erişim sağlamayı temin eden bir alt yapıdır."
  },
  {
    "id": 108,
    "name": "Savunmasız Bölge (Demilitarized Zone / DNZ)",
    "description": "Siber güvenlik tedbirleri vasıtasıyla tam anlamıyla korunmayan/korunamayan alanlardır."
  },
  {
    "id": 109,
    "name": "Sınır Güvenliği (Border Security)",
    "description": "Bilişim sistemlerinin, güvenlik duvarı ve saldırı engelleme sistemleri gibi erişim kontrolü sağlayan sistemler aracılığı ile dış ağlardan gelebilecek saldırılardan korunması."
  },
  {
    "id": 110,
    "name": "Sızma Testi (Penetrasyon Test)",
    "description": "Kurumların bilişim altyapısına yönelik saldırılara karşı güvenlik açıklarını tespit edebilmek amacıyla yapılan güvenlik testleridir."
  },
  {
    "id": 111,
    "name": "Siber Aktivistler (Cyber Activists)",
    "description": "İnternet üzerinden gerçekleştirilen eylemlere katılarak siyasi ve toplumsal bir olaya destek vermek amacıyla faaliyet gösteren kimseleri ifade etmektedir. Siber aktivistler, örneğin bir online dilekçe imzalama veya bir sosyal medya web sitesinde bir kampanya grubuna katılma, retweet etme, hashtag oluşturma gibi etkinlikler planlarlar."
  },
  {
    "id": 112,
    "name": "Siber Çatışma (Cyber Conflict)",
    "description": "Önemli bir hasar veya yıkım yaratmak için bir başka ülkenin bilgisayar sistemlerini bozmak amacıyla dijital saldırı kullanılması durumunu ifade eden kavramdır."
  },
  {
    "id": 113,
    "name": "Siber Devriye (Cyber Patrol)",
    "description": "Siber Devriye, Emniyet Genel Müdürlüğü bünyesinde 2011’de kurulan Siber Suçlarla Mücadele Daire Başkanlığı ile bu başkanlığa bağlı yerel birimlerin, internetin suçlulardan arındırılması için 7 gün 24 saat esasıyla sanal ortamda yaptıkları devriye faaliyetidir."
  },
  {
    "id": 114,
    "name": "Siber Güvenlik (Cyber security)",
    "description": "Siber kaynaklı saldırılara, tehditlere, sabotajlara ve terör faaliyetlerine karşı kurum, kuruluş ve kullanıcıların varlıklarını korumak amacıyla kullanılan politikalar, oluşturulan güvenlik kavramları, risk yönetimi yaklaşımları gibi faaliyetlerin tamamıdır."
  },
  {
    "id": 115,
    "name": "Siber Suç (Cyber Crime)",
    "description": "Bilişim sistemlerinin gizlilik, bütünlük veya erişilebilirliğini ortadan kaldırmak amacıyla, siber uzay kaynaklı olarak çeşitli tehdit odaklarından gelen ve kanunlara göre suç kabul edilen eylemlerdir."
  },
  {
    "id": 116,
    "name": "Siber Savunma (Cyber Defense)",
    "description": "Bilişim sistemlerini veya kritik altyapıları, siber tehditlere karşı korumak amacı ile alınan önlemlerdir."
  },
  {
    "id": 117,
    "name": "Siber Olay (Cyber Event)",
    "description": "Siber uzay kaynaklı saldırılar, tehditler ve sabotajların her birine siber olay denir."
  },
  {
    "id": 118,
    "name": "Siber Ortam (Cyber Area)",
    "description": "Kara, deniz, hava ve uzaya yayılmış durumda bulunan bilişim sistemleri ile bunları birbirine bağlayan ağların bütününe siber ortam denir."
  },
  {
    "id": 119,
    "name": "Siber Risk (Cyber Risk)",
    "description": "Siber olayın olumsuz sonuçlarına ilişkin olasılıklar kombinasyonudur."
  },
  {
    "id": 120,
    "name": "Siber Savaş (Cyber War)",
    "description": "Bir devletin kritik altyapılarına ve bilgisayar sistemlerine zarar vermek veya kesintiye uğratmak amacıyla gerçekleştirilen faaliyetler bütünüdür."
  }
]